Rezago habitacional en México
…
ggsave("imagenes/Figura_1.png", plot = last_plot(), width = 9, height = 4, units = "in", dpi = 150)

rezago_entidad <- vivienda %>%
  group_by(nom_ent, rezago) %>%
  summarize(rez_ent = sum(factor), .groups = "drop") %>%
  filter(rezago == "En rezago") %>%
  mutate(pct_ent = rez_ent / sum(rez_ent) * 100)

rezago_entidad

## # A tibble: 32 x 4
##    nom_ent              rezago    rez_ent pct_ent
##    <chr>                <chr>       <dbl>   <dbl>
##  1 Aguascalientes       En rezago   17974   0.191
##  2 Baja California      En rezago  562019   5.97 
##  3 Baja California Sur  En rezago   70463   0.749
##  4 Campeche             En rezago  122394   1.30 
##  5 Chiapas              En rezago  931444   9.90 
##  6 Chihuahua            En rezago  471734   5.01 
##  7 Ciudad de México     En rezago  208650   2.22 
##  8 Coahuila de Zaragoza En rezago  134356   1.43 
##  9 Colima               En rezago   71301   0.758
## 10 Durango              En rezago   83075   0.883
## # … with 22 more rows
…
